{
  "project_info": {
    "project_number": "485252615329",
    "firebase_url": "https://physical-training-log.firebaseio.com",
    "project_id": "physical-training-log",
    "storage_bucket": "physical-training-log.appspot.com"
  },
  "client": [
    {
      "client_info": {
        "mobilesdk_app_id": "1:485252615329:android:f4cd2a49a24c61cdd974e0",
        "android_client_info": {
          "package_name": "com.caldender"
        }
      },
      "oauth_client": [
        {
          "client_id": "485252615329-nl30funmn281rk2jc7a3a6cp4qmlc91g.apps.googleusercontent.com",
          "client_type": 3
        }
      ],
      "api_key": [
        {
          "current_key": "AIzaSyBqY8ovt-r4N-PdYbbkHmQultbJqmPzBlU"
        }
      ],
      "services": {
        "appinvite_service": {
          "other_platform_oauth_client": [
            {
              "client_id": "485252615329-nl30funmn281rk2jc7a3a6cp4qmlc91g.apps.googleusercontent.com",
              "client_type": 3
            }
          ]
        }
      }
    }
  ],
  "configuration_version": "1"
}